<?xml version="1.0" encoding="UTF-8" standalone="no"?>
<!-- Created with Inkscape (http://www.inkscape.org/) -->

<svg
   xmlns:dc="http://purl.org/dc/elements/1.1/"
   xmlns:cc="http://creativecommons.org/ns#"
   xmlns:rdf="http://www.w3.org/1999/02/22-rdf-syntax-ns#"
   xmlns:svg="http://www.w3.org/2000/svg"
   xmlns="http://www.w3.org/2000/svg"
   xmlns:sodipodi="http://sodipodi.sourceforge.net/DTD/sodipodi-0.dtd"
   xmlns:inkscape="http://www.inkscape.org/namespaces/inkscape"
   width="16"
   height="16"
   viewBox="0 0 4.2333333 4.2333333"
   version="1.1"
   id="svg8"
   inkscape:version="0.92.4 (5da689c313, 2019-01-14)"
   sodipodi:docname="plot_moment_sunburst.svg">
  <defs
     id="defs2" />
  <sodipodi:namedview
     id="base"
     pagecolor="#ffffff"
     bordercolor="#666666"
     borderopacity="1.0"
     inkscape:pageopacity="0.0"
     inkscape:pageshadow="2"
     inkscape:zoom="11.2"
     inkscape:cx="2.5021181"
     inkscape:cy="9.5944877"
     inkscape:document-units="mm"
     inkscape:current-layer="g5139"
     showgrid="false"
     units="px"
     inkscape:window-width="1920"
     inkscape:window-height="1051"
     inkscape:window-x="3840"
     inkscape:window-y="0"
     inkscape:window-maximized="1"
     inkscape:snap-nodes="false"
     inkscape:snap-bbox="true" />
  <metadata
     id="metadata5">
    <rdf:RDF>
      <cc:Work
         rdf:about="">
        <dc:format>image/svg+xml</dc:format>
        <dc:type
           rdf:resource="http://purl.org/dc/dcmitype/StillImage" />
        <dc:title />
      </cc:Work>
    </rdf:RDF>
  </metadata>
  <g
     inkscape:label="Ebene 1"
     inkscape:groupmode="layer"
     id="layer1"
     transform="translate(0,-292.76667)">
    <g
       id="g5139"
       transform="rotate(-90,2.1465084,294.87976)">
      <ellipse
         ry="1.9711127"
         rx="2.0045214"
         cx="294.83801"
         cy="-2.1143084"
         style="opacity:1;fill:#ffffff;fill-opacity:1;stroke:#ff0000;stroke-width:0.26499999;stroke-miterlimit:4;stroke-dasharray:none;stroke-dashoffset:0;stroke-opacity:1"
         id="path1418-7-3"
         transform="rotate(90)" />
      <path
         style="opacity:1;fill:#fe00ff;fill-opacity:1;stroke:none;stroke-width:0.26499999;stroke-miterlimit:4;stroke-dasharray:none;stroke-dashoffset:0;stroke-opacity:1"
         id="path1418-7-0-6"
         sodipodi:type="arc"
         sodipodi:cx="294.83798"
         sodipodi:cy="-2.1226602"
         sodipodi:rx="1.9711127"
         sodipodi:ry="1.9711127"
         sodipodi:start="4.7081695"
         sodipodi:end="6.2789659"
         d="m 294.82967,-4.0937553 a 1.9711127,1.9711127 0 0 1 1.39621,0.5714394 1.9711127,1.9711127 0 0 1 0.5832,1.3913388 l -1.9711,0.00832 z"
         transform="rotate(90)" />
      <path
         style="opacity:1;fill:#fe00ff;fill-opacity:1;stroke:none;stroke-width:0.26499999;stroke-miterlimit:4;stroke-dasharray:none;stroke-dashoffset:0;stroke-opacity:1"
         id="path1418-7-0"
         transform="rotate(90)"
         sodipodi:type="arc"
         sodipodi:cx="294.85873"
         sodipodi:cy="-2.1328268"
         sodipodi:rx="1.9711127"
         sodipodi:ry="1.9711127"
         sodipodi:start="1.5707963"
         sodipodi:end="3.1415927"
         d="m 294.85873,-0.16171408 a 1.9711127,1.9711127 0 0 1 -1.39378,-0.57732556 1.9711127,1.9711127 0 0 1 -0.57733,-1.39378726 l 1.97111,10e-8 z" />
      <circle
         r="0"
         cx="294.88925"
         cy="-2.1675754"
         style="opacity:1;fill:none;fill-opacity:0.3372549;stroke:#ff0000;stroke-width:0.26499999;stroke-miterlimit:4;stroke-dasharray:none;stroke-dashoffset:0;stroke-opacity:1"
         id="path1418-3"
         transform="rotate(90)" />
      <circle
         r="0"
         cx="294.88925"
         cy="-2.1675754"
         style="opacity:1;fill:none;fill-opacity:0.3372549;stroke:#ff0000;stroke-width:0.26499999;stroke-miterlimit:4;stroke-dasharray:none;stroke-dashoffset:0;stroke-opacity:1"
         id="path1418-6"
         transform="rotate(90)" />
      <ellipse
         ry="1.9711127"
         rx="2.0045214"
         transform="rotate(90)"
         cx="294.85471"
         cy="-2.1143084"
         style="opacity:1;fill:none;fill-opacity:0.3372549;stroke:#ff0000;stroke-width:0.26499999;stroke-miterlimit:4;stroke-dasharray:none;stroke-dashoffset:0;stroke-opacity:1"
         id="path1418-7" />
      <g
         id="g874"
         transform="translate(0.01670435,-0.93544334)">
        <circle
           transform="rotate(90)"
           id="path1418"
           style="opacity:1;fill:#feffff;fill-opacity:1;stroke:#000000;stroke-width:0.26499999;stroke-miterlimit:4;stroke-dasharray:none;stroke-dashoffset:0;stroke-opacity:1"
           cy="-2.1675754"
           cx="294.88925"
           r="0.61806077" />
        <path
           d="m 294.31041,-2.2706069 a 0.49823648,0.46175161 0 0 1 0.49176,-0.4659196 l 0.006,0.4617128 z"
           sodipodi:end="4.6994263"
           sodipodi:start="3.1324821"
           sodipodi:ry="0.46175161"
           sodipodi:rx="0.49823648"
           sodipodi:cy="-2.2748137"
           sodipodi:cx="294.80862"
           sodipodi:type="arc"
           transform="rotate(90)"
           id="path1418-2"
           style="opacity:1;fill:#000000;fill-opacity:1;stroke:#000000;stroke-width:0.20565374;stroke-miterlimit:4;stroke-dasharray:none;stroke-dashoffset:0;stroke-opacity:1" />
        <path
           transform="rotate(-90)"
           d="m -295.47522,2.0810623 a 0.48357153,0.50512803 0 0 1 0.47728,-0.5096875 l 0.006,0.5050856 z"
           sodipodi:end="4.6994263"
           sodipodi:start="3.1324821"
           sodipodi:ry="0.50512803"
           sodipodi:rx="0.48357153"
           sodipodi:cy="2.0764604"
           sodipodi:cx="-294.99167"
           sodipodi:type="arc"
           id="path1418-2-4"
           style="opacity:1;fill:#000000;fill-opacity:1;stroke:#000000;stroke-width:0.21190722;stroke-miterlimit:4;stroke-dasharray:none;stroke-dashoffset:0;stroke-opacity:1" />
      </g>
      <g
         transform="translate(-0.01670613,0.78510247)"
         id="g874-6">
        <g
           transform="rotate(90,2.3270873,294.03338)"
           id="g826"
           style="fill:#000000;stroke:#000000;stroke-opacity:1">
          <rect
             y="294.01752"
             x="2.6753628"
             height="1.0039992"
             width="1.0984933"
             id="rect2305"
             style="opacity:1;fill:#000000;fill-opacity:1;stroke:#000000;stroke-width:0.26499999;stroke-miterlimit:4;stroke-dasharray:none;stroke-dashoffset:0;stroke-opacity:1" />
          <path
             inkscape:connector-curvature="0"
             id="path2307"
             d="m 3.0011256,293.92986 c 0,0 0.039905,-0.35878 -0.222329,-0.40861 -0.2622343,-0.0498 -0.1596209,-0.2558 0.028504,-0.25247 0.1881246,0.003 0.3848003,0.01 0.3848003,0.01"
             style="fill:#000000;stroke:#000000;stroke-width:0.19495985px;stroke-linecap:butt;stroke-linejoin:miter;stroke-opacity:1" />
          <path
             inkscape:connector-curvature="0"
             id="path2307-8"
             d="m 3.365058,293.92986 c 0,0 -0.03614,-0.35878 0.2013522,-0.40861 0.2374924,-0.0498 0.1445606,-0.2558 -0.025815,-0.25247 -0.170375,0.003 -0.3484943,0.01 -0.3484943,0.01"
             style="fill:#000000;stroke:#000000;stroke-width:0.18553475px;stroke-linecap:butt;stroke-linejoin:miter;stroke-opacity:1" />
          <rect
             y="293.35608"
             x="2.7934802"
             height="0.047263011"
             width="0.78548163"
             id="rect2354"
             style="opacity:1;fill:#000000;fill-opacity:1;stroke:#000000;stroke-width:0.26499999;stroke-miterlimit:4;stroke-dasharray:none;stroke-dashoffset:0;stroke-opacity:1" />
          <rect
             y="293.35611"
             x="3.0474331"
             height="0.73819697"
             width="0.32482326"
             id="rect2356"
             style="opacity:1;fill:#000000;fill-opacity:1;stroke:#000000;stroke-width:0.26499999;stroke-miterlimit:4;stroke-dasharray:none;stroke-dashoffset:0;stroke-opacity:1" />
        </g>
      </g>
    </g>
  </g>
</svg>
